[
	{
		"id": "11130579-bb38-4317-a764-2efff98cbb04",
		"name": "key-king-cobra",
		"org_id": "c1556e17-b7c0-45a3-a6ae-9546248fb17a",
		"deleted": false
	},
	{
		"id": "72dc6a27-14d5-4643-a882-087990903069",
		"name": "balanced-bella",
		"org_id": "c1556e17-b7c0-45a3-a6ae-9546248fb17a",
		"deleted": true
	},
	{
		"id": "a92778fb-3ef7-4d10-8b38-d061de4d3ffe",
		"name": "fitting-tombstone",
		"org_id": "c1556e17-b7c0-45a3-a6ae-9546248fb17a",
		"deleted": true
	},
	{
		"id": "1f2b1aa3-604b-410f-8900-7bd972bf7b6c",
		"name": "smashing-supergirl",
		"org_id": "c1556e17-b7c0-45a3-a6ae-9546248fb17a",
		"deleted": true
	},
	{
		"id": "fb67209a-517d-42dd-b839-9b90c73bb545",
		"name": "able-slipstream",
		"org_id": "c1556e17-b7c0-45a3-a6ae-9546248fb17a",
		"deleted": false
	},
	{
		"id": "96639516-0743-413c-8f53-2cc922e250ba",
		"name": "correct-scalphunter",
		"org_id": "c1556e17-b7c0-45a3-a6ae-9546248fb17a",
		"deleted": true
	}
]